<svg xmlns="http://www.w3.org/2000/svg" viewBox="0 0 22 33" fill="#b1b1b9">
    <title>Ресурс 605</title>
    <g id="Слой_2" >
        <g id="Слой_45" >
            <path d="M8.5,2C11.57,2,15,8,15,16.5S11.57,31,8.5,31,2,25,2,16.5,5.43,2,8.5,2m0-2C3.81,0,0,7.39,0,16.5S3.81,33,8.5,33,17,25.61,17,16.5,13.19,0,8.5,0Z"/>
            <path d="M13.5,0A4.19,4.19,0,0,0,13,0v2A2.13,2.13,0,0,1,13.5,2C16.57,2,20,7.95,20,16.5S16.57,31,13.5,31a2.13,2.13,0,0,1-.5-.06v2a4.19,4.19,0,0,0,.5,0c4.69,0,8.5-7.39,8.5-16.5S18.19,0,13.5,0Z"/>
            <rect x="10" width="4" height="2"/>
            <rect x="10" y="31" width="4" height="2"/>
            <rect x="14" y="27" width="4" height="2"/>
            <rect x="14" y="4" width="4" height="2"/>
            <rect x="15" y="8" width="5" height="2"/>
            <rect x="15" y="23" width="5" height="2"/>
            <rect x="16" y="18" width="5" height="2"/>
            <rect x="16" y="13" width="5" height="2"/>
        </g>
    </g>
</svg>